Computes transformed variables from Canonical Correlation Analysis using a stars object — canonical_correlation.stars • stxplore
…
#> 4989 2489 -0.0533578375 CCA1-df2
#> 4990 2490 -0.0547437554 CCA1-df2
#> 4991 2491 -0.0561296732 CCA1-df2
#> 4992 2492 -0.0575155911 CCA1-df2
#> 4993 2493 -0.0589015089 CCA1-df2
#> 4994 2494 -0.0602874268 CCA1-df2
#> 4995 2495 -0.0616733447 CCA1-df2
#> 4996 2496 -0.0630592625 CCA1-df2
#> 4997 2497 -0.0644451804 CCA1-df2
#> 4998 2498 -0.0658310982 CCA1-df2
#> 4999 2499 -0.0672170161 CCA1-df2
#> 5000 2500 -0.0686029339 CCA1-df2
#> 
#> $df1
#> # A tibble: 2,500 × 3
#>        x     y    A1
#>    <dbl> <dbl> <dbl>
#>  1   0.5   0.5    38
#>  2   1.5   0.5    49
#>  3   2.5   0.5    64
#>  4   3.5   0.5    65
#>  5   4.5   0.5    69
#>  6   5.5   0.5    55
#>  7   6.5   0.5    38
#>  8   7.5   0.5    63
#>  9   8.5   0.5    69
#> 10   9.5   0.5    59
#> # … with 2,490 more rows
#> 
#> $df2
#> # A tibble: 2,500 × 3
#>        x     y    A1
#>    <dbl> <dbl> <dbl>
#>  1   0.5   0.5    41
#>  2   1.5   0.5    26
#>  3   2.5   0.5    35
#>  4   3.5   0.5    31
#>  5   4.5   0.5    24
#>  6   5.5   0.5    26
#>  7   6.5   0.5    26
#>  8   7.5   0.5    19
#>  9   8.5   0.5    11
#> 10   9.5   0.5     9
#> # … with 2,490 more rows
…
