Computes empirical orthogonal functions for a stars object — emp_orth_fun.stars • stxplore
…
#> 13464 -0.0019001354  0.0292838247  0.017066362 -3.255669e-02  0.029187345
#> 13582  0.0093865096  0.0748158926  0.053879825 -1.908027e-02 -0.066245302
#> 13782  0.0036797171 -0.0031589994  0.019927938  2.762160e-02  0.132247242
#> 13835  0.0388008916  0.0422719282  0.010706355  1.901478e-02  0.003417865
#> 13965  0.0437457737  0.0659387125  0.138311702  9.381105e-04 -0.002238675
#> 14005 -0.0335617219  0.0133679405  0.015708447  5.204784e-02 -0.022820937
#> 14045 -0.0279489479 -0.0535044125 -0.131398582 -2.375241e-02  0.069348209
#> 14222  0.0163161400 -0.0253279292 -0.005679829  4.629147e-02 -0.204973532
#> 14332 -0.0098487740  0.0113988334 -0.067311131 -2.678005e-02  0.061107721
#> 14470 -0.0597738104 -0.1022972641 -0.151642944 -8.013756e-02  0.161562165
#> 14528 -0.0490196746 -0.0902100369 -0.097156430 -1.036948e-02 -0.030508646
#> 14750  0.0241630687 -0.0083151147 -0.064794034 -3.665783e-02 -0.114463899
#> 
#> $pcts
#> # A tibble: 784 × 4
#>        t EOF         PC     nPC
#>    <int> <chr>    <dbl>   <dbl>
#>  1     1 X1    -0.107   -0.558 
#>  2     1 X2    -0.0557  -0.289 
#>  3     1 X3     0.0207   0.107 
#>  4     1 X4    -0.0677  -0.352 
#>  5     1 X5     0.0228   0.119 
#>  6     1 X6    -0.0477  -0.248 
#>  7     1 X7     0.0532   0.276 
#>  8     1 X8    -0.0642  -0.333 
#>  9     1 X9     0.0836   0.435 
#> 10     1 X10   -0.00756 -0.0393
#> # … with 774 more rows
…
