Computes spatial empirical means using a dataframe as input — spatial_means.data.frame • stxplore
…
data(NOAA_df_1990)
library(dplyr)
Tmax <- filter(NOAA_df_1990,                      # subset the data
              proc == "Tmax" &                   # extract max temperature
                month %in% 5:9 &                 # May to July
                year == 1993)                    # year 1993
Tmax$t <- Tmax$julian - min(Tmax$julian) + 1      # create a new time variable starting at 1
spatial_means(Tmax,
       lat_col = "lat",
       lon_col = "lon",
       t_col = "t",
       z_col = "z")
#> $spatial_avg
#> # A tibble: 133 × 3
#> # Groups:   x [120]
#>         x     y mu_emp
#>     <dbl> <dbl>  <dbl>
#>  1 -100.   37.8   83.3
#>  2  -99.8  36.3   87.0
#>  3  -99.7  32.4   90.4
#>  4  -99.1  35     88.0
#>  5  -98.8  38.9   82.7
#>  6  -98.5  34.0   89.8
#>  7  -98.4  45.5   74.5
#>  8  -98.3  41.0   77.8
#>  9  -98.2  44.4   74.5
#> 10  -98.2  32.2   88.9
#> # … with 123 more rows
…
