Computes temporal empirical means using a dataframe as input — temporal_means.data.frame • stxplore
…
#> 20295  63 1993-09-19 94918
#> 20296  68 1993-09-20 94918
#> 20297  76 1993-09-21 94918
#> 20298  69 1993-09-22 94918
#> 20299  61 1993-09-23 94918
#> 20300  59 1993-09-24 94918
#> 20301  68 1993-09-25 94918
#> 20302  58 1993-09-26 94918
#> 20303  73 1993-09-27 94918
#> 20304  66 1993-09-28 94918
#> 20305  66 1993-09-29 94918
#> 20306  76 1993-09-30 94918
#> 
#> $averages
#> # A tibble: 153 × 2
#>    time       meanz
#>    <date>     <dbl>
#>  1 1993-05-01  69.2
#>  2 1993-05-02  68.6
#>  3 1993-05-03  69.5
#>  4 1993-05-04  73.6
#>  5 1993-05-05  78.0
#>  6 1993-05-06  79.7
#>  7 1993-05-07  80.0
#>  8 1993-05-08  80.9
#>  9 1993-05-09  78.6
#> 10 1993-05-10  78.0
#> # … with 143 more rows
…
